%YAML 1.1
%TAG !u! tag:unity3d.com,2011:
--- !u!1001 &6762879136282700819
PrefabInstance:
  m_ObjectHideFlags: 0
  serializedVersion: 2
  m_Modification:
    serializedVersion: 3
    m_TransformParent: {fileID: 0}
    m_Modifications:
    - target: {fileID: -8679921383154817045, guid: 6afb77ea4c38d37429f01b078166f6ec, type: 3}
      propertyPath: m_LocalPosition.x
      value: -0.09460664
      objectReference: {fileID: 0}
    - target: {fileID: -8679921383154817045, guid: 6afb77ea4c38d37429f01b078166f6ec, type: 3}
      propertyPath: m_LocalPosition.y
      value: 0.0000019073486
      objectReference: {fileID: 0}
    - target: {fileID: -8679921383154817045, guid: 6afb77ea4c38d37429f01b078166f6ec, type: 3}
      propertyPath: m_LocalPosition.z
      value: -6.7029824
      objectReference: {fileID: 0}
    - target: {fileID: -8679921383154817045, guid: 6afb77ea4c38d37429f01b078166f6ec, type: 3}
      propertyPath: m_LocalRotation.w
      value: 0.7071067
      objectReference: {fileID: 0}
    - target: {fileID: -8679921383154817045, guid: 6afb77ea4c38d37429f01b078166f6ec, type: 3}
      propertyPath: m_LocalRotation.x
      value: -0.7071068
      objectReference: {fileID: 0}
    - target: {fileID: -8679921383154817045, guid: 6afb77ea4c38d37429f01b078166f6ec, type: 3}
      propertyPath: m_LocalRotation.y
      value: 0
      objectReference: {fileID: 0}
    - target: {fileID: -8679921383154817045, guid: 6afb77ea4c38d37429f01b078166f6ec, type: 3}
      propertyPath: m_LocalRotation.z
      value: -0
      objectReference: {fileID: 0}
    - target: {fileID: -8679921383154817045, guid: 6afb77ea4c38d37429f01b078166f6ec, type: 3}
      propertyPath: m_LocalEulerAnglesHint.x
      value: 0
      objectReference: {fileID: 0}
    - target: {fileID: -8679921383154817045, guid: 6afb77ea4c38d37429f01b078166f6ec, type: 3}
      propertyPath: m_LocalEulerAnglesHint.y
      value: 0
      objectReference: {fileID: 0}
    - target: {fileID: -8679921383154817045, guid: 6afb77ea4c38d37429f01b078166f6ec, type: 3}
      propertyPath: m_LocalEulerAnglesHint.z
      value: 0
      objectReference: {fileID: 0}
    - target: {fileID: -7511558181221131132, guid: 6afb77ea4c38d37429f01b078166f6ec, type: 3}
      propertyPath: m_Materials.Array.data[0]
      value: 
      objectReference: {fileID: 2100000, guid: 5fc2795a783fe1846af069088d427381, type: 2}
    - target: {fileID: 919132149155446097, guid: 6afb77ea4c38d37429f01b078166f6ec, type: 3}
      propertyPath: m_Name
      value: CTF Ammo
      objectReference: {fileID: 0}
    m_RemovedComponents: []
    m_RemovedGameObjects: []
    m_AddedGameObjects: []
    m_AddedComponents: []
  m_SourcePrefab: {fileID: 100100000, guid: 6afb77ea4c38d37429f01b078166f6ec, type: 3}
