%YAML 1.1
%TAG !u! tag:unity3d.com,2011:
--- !u!1 &3466232637025562891
GameObject:
  m_ObjectHideFlags: 0
  m_CorrespondingSourceObject: {fileID: 0}
  m_PrefabInstance: {fileID: 0}
  m_PrefabAsset: {fileID: 0}
  serializedVersion: 6
  m_Component:
  - component: {fileID: 6686743901147611707}
  m_Layer: 0
  m_Name: PedestalSpawn
  m_TagString: Untagged
  m_Icon: {fileID: 0}
  m_NavMeshLayer: 0
  m_StaticEditorFlags: 0
  m_IsActive: 1
--- !u!4 &6686743901147611707
Transform:
  m_ObjectHideFlags: 0
  m_CorrespondingSourceObject: {fileID: 0}
  m_PrefabInstance: {fileID: 0}
  m_PrefabAsset: {fileID: 0}
  m_GameObject: {fileID: 3466232637025562891}
  serializedVersion: 2
  m_LocalRotation: {x: 0, y: 0, z: 0, w: 1}
  m_LocalPosition: {x: 4.04, y: 0.681, z: -7.358}
  m_LocalScale: {x: 1, y: 1, z: 1}
  m_ConstrainProportionsScale: 0
  m_Children:
  - {fileID: 1021467086279002961}
  m_Father: {fileID: 0}
  m_LocalEulerAnglesHint: {x: 0, y: 0, z: 0}
--- !u!1001 &695317522619346106
PrefabInstance:
  m_ObjectHideFlags: 0
  serializedVersion: 2
  m_Modification:
    serializedVersion: 3
    m_TransformParent: {fileID: 6686743901147611707}
    m_Modifications:
    - target: {fileID: -8679921383154817045, guid: 668b677c61bf02c4187d6b15a474385b, type: 3}
      propertyPath: m_LocalScale.x
      value: 0.69064015
      objectReference: {fileID: 0}
    - target: {fileID: -8679921383154817045, guid: 668b677c61bf02c4187d6b15a474385b, type: 3}
      propertyPath: m_LocalScale.y
      value: 0.69064003
      objectReference: {fileID: 0}
    - target: {fileID: -8679921383154817045, guid: 668b677c61bf02c4187d6b15a474385b, type: 3}
      propertyPath: m_LocalScale.z
      value: 0.69064
      objectReference: {fileID: 0}
    - target: {fileID: -8679921383154817045, guid: 668b677c61bf02c4187d6b15a474385b, type: 3}
      propertyPath: m_LocalPosition.x
      value: 0.003
      objectReference: {fileID: 0}
    - target: {fileID: -8679921383154817045, guid: 668b677c61bf02c4187d6b15a474385b, type: 3}
      propertyPath: m_LocalPosition.y
      value: 0
      objectReference: {fileID: 0}
    - target: {fileID: -8679921383154817045, guid: 668b677c61bf02c4187d6b15a474385b, type: 3}
      propertyPath: m_LocalPosition.z
      value: 0.007
      objectReference: {fileID: 0}
    - target: {fileID: -8679921383154817045, guid: 668b677c61bf02c4187d6b15a474385b, type: 3}
      propertyPath: m_LocalRotation.w
      value: 0.62413675
      objectReference: {fileID: 0}
    - target: {fileID: -8679921383154817045, guid: 668b677c61bf02c4187d6b15a474385b, type: 3}
      propertyPath: m_LocalRotation.x
      value: -0.6241368
      objectReference: {fileID: 0}
    - target: {fileID: -8679921383154817045, guid: 668b677c61bf02c4187d6b15a474385b, type: 3}
      propertyPath: m_LocalRotation.y
      value: 0.33234516
      objectReference: {fileID: 0}
    - target: {fileID: -8679921383154817045, guid: 668b677c61bf02c4187d6b15a474385b, type: 3}
      propertyPath: m_LocalRotation.z
      value: 0.33234516
      objectReference: {fileID: 0}
    - target: {fileID: -8679921383154817045, guid: 668b677c61bf02c4187d6b15a474385b, type: 3}
      propertyPath: m_LocalEulerAnglesHint.x
      value: -90
      objectReference: {fileID: 0}
    - target: {fileID: -8679921383154817045, guid: 668b677c61bf02c4187d6b15a474385b, type: 3}
      propertyPath: m_LocalEulerAnglesHint.y
      value: 0
      objectReference: {fileID: 0}
    - target: {fileID: -8679921383154817045, guid: 668b677c61bf02c4187d6b15a474385b, type: 3}
      propertyPath: m_LocalEulerAnglesHint.z
      value: 56.069
      objectReference: {fileID: 0}
    - target: {fileID: -7511558181221131132, guid: 668b677c61bf02c4187d6b15a474385b, type: 3}
      propertyPath: m_Materials.Array.data[0]
      value: 
      objectReference: {fileID: 2100000, guid: 7513c22b2a0ef5c4e8be9f25912d1397, type: 2}
    - target: {fileID: 919132149155446097, guid: 668b677c61bf02c4187d6b15a474385b, type: 3}
      propertyPath: m_Name
      value: PickupPedestal
      objectReference: {fileID: 0}
    m_RemovedComponents: []
    m_RemovedGameObjects: []
    m_AddedGameObjects: []
    m_AddedComponents: []
  m_SourcePrefab: {fileID: 100100000, guid: 668b677c61bf02c4187d6b15a474385b, type: 3}
--- !u!4 &1021467086279002961 stripped
Transform:
  m_CorrespondingSourceObject: {fileID: -8679921383154817045, guid: 668b677c61bf02c4187d6b15a474385b, type: 3}
  m_PrefabInstance: {fileID: 695317522619346106}
  m_PrefabAsset: {fileID: 0}
