%YAML 1.1
%TAG !u! tag:unity3d.com,2011:
--- !u!1001 &5768900049862200507
PrefabInstance:
  m_ObjectHideFlags: 0
  serializedVersion: 2
  m_Modification:
    serializedVersion: 3
    m_TransformParent: {fileID: 0}
    m_Modifications:
    - target: {fileID: -8679921383154817045, guid: 668b677c61bf02c4187d6b15a474385b, type: 3}
      propertyPath: m_LocalScale.x
      value: 0.69064015
      objectReference: {fileID: 0}
    - target: {fileID: -8679921383154817045, guid: 668b677c61bf02c4187d6b15a474385b, type: 3}
      propertyPath: m_LocalScale.y
      value: 0.69064003
      objectReference: {fileID: 0}
    - target: {fileID: -8679921383154817045, guid: 668b677c61bf02c4187d6b15a474385b, type: 3}
      propertyPath: m_LocalScale.z
      value: 0.69064
      objectReference: {fileID: 0}
    - target: {fileID: -8679921383154817045, guid: 668b677c61bf02c4187d6b15a474385b, type: 3}
      propertyPath: m_LocalPosition.x
      value: 0
      objectReference: {fileID: 0}
    - target: {fileID: -8679921383154817045, guid: 668b677c61bf02c4187d6b15a474385b, type: 3}
      propertyPath: m_LocalPosition.y
      value: 0
      objectReference: {fileID: 0}
    - target: {fileID: -8679921383154817045, guid: 668b677c61bf02c4187d6b15a474385b, type: 3}
      propertyPath: m_LocalPosition.z
      value: 0
      objectReference: {fileID: 0}
    - target: {fileID: -8679921383154817045, guid: 668b677c61bf02c4187d6b15a474385b, type: 3}
      propertyPath: m_LocalRotation.w
      value: 0.62413675
      objectReference: {fileID: 0}
    - target: {fileID: -8679921383154817045, guid: 668b677c61bf02c4187d6b15a474385b, type: 3}
      propertyPath: m_LocalRotation.x
      value: -0.6241368
      objectReference: {fileID: 0}
    - target: {fileID: -8679921383154817045, guid: 668b677c61bf02c4187d6b15a474385b, type: 3}
      propertyPath: m_LocalRotation.y
      value: 0.33234516
      objectReference: {fileID: 0}
    - target: {fileID: -8679921383154817045, guid: 668b677c61bf02c4187d6b15a474385b, type: 3}
      propertyPath: m_LocalRotation.z
      value: 0.33234516
      objectReference: {fileID: 0}
    - target: {fileID: -8679921383154817045, guid: 668b677c61bf02c4187d6b15a474385b, type: 3}
      propertyPath: m_LocalEulerAnglesHint.x
      value: -90
      objectReference: {fileID: 0}
    - target: {fileID: -8679921383154817045, guid: 668b677c61bf02c4187d6b15a474385b, type: 3}
      propertyPath: m_LocalEulerAnglesHint.y
      value: 0
      objectReference: {fileID: 0}
    - target: {fileID: -8679921383154817045, guid: 668b677c61bf02c4187d6b15a474385b, type: 3}
      propertyPath: m_LocalEulerAnglesHint.z
      value: 56.069
      objectReference: {fileID: 0}
    - target: {fileID: -7511558181221131132, guid: 668b677c61bf02c4187d6b15a474385b, type: 3}
      propertyPath: m_Materials.Array.data[0]
      value: 
      objectReference: {fileID: 2100000, guid: 7513c22b2a0ef5c4e8be9f25912d1397, type: 2}
    - target: {fileID: 919132149155446097, guid: 668b677c61bf02c4187d6b15a474385b, type: 3}
      propertyPath: m_Name
      value: PickupPedestal
      objectReference: {fileID: 0}
    m_RemovedComponents: []
    m_RemovedGameObjects: []
    m_AddedGameObjects: []
    m_AddedComponents: []
  m_SourcePrefab: {fileID: 100100000, guid: 668b677c61bf02c4187d6b15a474385b, type: 3}
