%YAML 1.1
%TAG !u! tag:unity3d.com,2011:
--- !u!1001 &9203602125084027157
PrefabInstance:
  m_ObjectHideFlags: 0
  serializedVersion: 2
  m_Modification:
    serializedVersion: 3
    m_TransformParent: {fileID: 0}
    m_Modifications:
    - target: {fileID: -8679921383154817045, guid: 7f1846b99056dd94b894bd9d61a068e1, type: 3}
      propertyPath: m_LocalPosition.x
      value: -4.491499
      objectReference: {fileID: 0}
    - target: {fileID: -8679921383154817045, guid: 7f1846b99056dd94b894bd9d61a068e1, type: 3}
      propertyPath: m_LocalPosition.y
      value: 0
      objectReference: {fileID: 0}
    - target: {fileID: -8679921383154817045, guid: 7f1846b99056dd94b894bd9d61a068e1, type: 3}
      propertyPath: m_LocalPosition.z
      value: -14.720045
      objectReference: {fileID: 0}
    - target: {fileID: -8679921383154817045, guid: 7f1846b99056dd94b894bd9d61a068e1, type: 3}
      propertyPath: m_LocalRotation.w
      value: 1
      objectReference: {fileID: 0}
    - target: {fileID: -8679921383154817045, guid: 7f1846b99056dd94b894bd9d61a068e1, type: 3}
      propertyPath: m_LocalRotation.x
      value: 0
      objectReference: {fileID: 0}
    - target: {fileID: -8679921383154817045, guid: 7f1846b99056dd94b894bd9d61a068e1, type: 3}
      propertyPath: m_LocalRotation.y
      value: 0
      objectReference: {fileID: 0}
    - target: {fileID: -8679921383154817045, guid: 7f1846b99056dd94b894bd9d61a068e1, type: 3}
      propertyPath: m_LocalRotation.z
      value: 0
      objectReference: {fileID: 0}
    - target: {fileID: -8679921383154817045, guid: 7f1846b99056dd94b894bd9d61a068e1, type: 3}
      propertyPath: m_LocalEulerAnglesHint.x
      value: 0
      objectReference: {fileID: 0}
    - target: {fileID: -8679921383154817045, guid: 7f1846b99056dd94b894bd9d61a068e1, type: 3}
      propertyPath: m_LocalEulerAnglesHint.y
      value: 0
      objectReference: {fileID: 0}
    - target: {fileID: -8679921383154817045, guid: 7f1846b99056dd94b894bd9d61a068e1, type: 3}
      propertyPath: m_LocalEulerAnglesHint.z
      value: 0
      objectReference: {fileID: 0}
    - target: {fileID: 919132149155446097, guid: 7f1846b99056dd94b894bd9d61a068e1, type: 3}
      propertyPath: m_Name
      value: CTF Flag
      objectReference: {fileID: 0}
    m_RemovedComponents: []
    m_RemovedGameObjects: []
    m_AddedGameObjects: []
    m_AddedComponents: []
  m_SourcePrefab: {fileID: 100100000, guid: 7f1846b99056dd94b894bd9d61a068e1, type: 3}
